SPImemoryTest.vcd
$date
	Tue Oct 16 21:45:56 2018
$end
$version
	Icarus Verilog
$end
$timescale
	1s
$end
$scope module SPImemoryTest $end
$var wire 1 ! miso_pin $end
$var reg 1 " clk $end
$var reg 1 # cs_pin $end
$var reg 1 $ mosi_pin $end
$var reg 1 % sclk_pin $end
$scope module dut $end
$var wire 1 " clk $end
$var wire 1 # cs_pin $end
$var wire 4 & leds [3:0] $end
$var wire 1 ! miso_pin $end
$var wire 1 $ mosi_pin $end
$var wire 1 % sclk_pin $end
$var wire 1 ' sr_we $end
$var wire 1 ( serialDataOut $end
$var wire 1 ) posedge3 $end
$var wire 1 * posedge2 $end
$var wire 1 + posedge1 $end
$var wire 8 , parallelDataOut [7:0] $end
$var wire 1 - negedge3 $end
$var wire 1 . negedge2 $end
$var wire 1 / negedge1 $end
$var wire 1 0 miso_bufe $end
$var wire 1 1 dm_we $end
$var wire 8 2 datamemoryout [7:0] $end
$var wire 1 3 conditioned3 $end
$var wire 1 4 conditioned2 $end
$var wire 1 5 conditioned1 $end
$var wire 8 6 address [7:0] $end
$var wire 1 7 addr_we $end
$scope module al $end
$var wire 1 " clk $end
$var wire 8 8 d [7:0] $end
$var wire 1 7 clk_en $end
$var reg 8 9 q [7:0] $end
$upscope $end
$scope module dm $end
$var wire 7 : address [6:0] $end
$var wire 1 " clk $end
$var wire 1 1 writeEnable $end
$var wire 8 ; dataIn [7:0] $end
$var reg 8 < dataOut [7:0] $end
$upscope $end
$scope module fsm1 $end
$var wire 1 = shift_register_output $end
$var wire 1 * sclk $end
$var wire 1 3 cs $end
$var reg 1 7 addr_we $end
$var reg 3 > count [2:0] $end
$var reg 1 1 dm_we $end
$var reg 1 0 miso_bufe $end
$var reg 1 ' sr_we $end
$var reg 3 ? state [2:0] $end
$upscope $end
$scope module ic1 $end
$var wire 1 " clk $end
$var wire 1 $ noisysignal $end
$var reg 1 5 conditioned $end
$var reg 3 @ counter [2:0] $end
$var reg 1 / negativeedge $end
$var reg 1 + positiveedge $end
$var reg 1 A synchronizer0 $end
$var reg 1 B synchronizer1 $end
$upscope $end
$scope module ic2 $end
$var wire 1 " clk $end
$var wire 1 % noisysignal $end
$var reg 1 4 conditioned $end
$var reg 3 C counter [2:0] $end
$var reg 1 . negativeedge $end
$var reg 1 * positiveedge $end
$var reg 1 D synchronizer0 $end
$var reg 1 E synchronizer1 $end
$upscope $end
$scope module ic3 $end
$var wire 1 " clk $end
$var wire 1 # noisysignal $end
$var reg 1 3 conditioned $end
$var reg 3 F counter [2:0] $end
$var reg 1 - negativeedge $end
$var reg 1 ) positiveedge $end
$var reg 1 G synchronizer0 $end
$var reg 1 H synchronizer1 $end
$upscope $end
$scope module sr1 $end
$var wire 1 " clk $end
$var wire 8 I parallelDataIn [7:0] $end
$var wire 8 J parallelDataOut [7:0] $end
$var wire 1 ' parallelLoad $end
$var wire 1 * peripheralClkEdge $end
$var wire 1 5 serialDataIn $end
$var wire 1 ( serialDataOut $end
$var reg 8 K shiftregistermem [7:0] $end
$upscope $end
$upscope $end
$upscope $end
$enddefinitions $end
#0
$dumpvars
bx K
bx J
bx I
0H
0G
b0 F
0E
0D
b0 C
0B
0A
b0 @
bx ?
bx >
x=
bx <
bx ;
bx :
bx 9
bx 8
x7
bx 6
x5
x4
x3
bx 2
x1
x0
x/
x.
x-
bx ,
x+
x*
x)
x(
x'
bz &
0%
0$
1#
0"
z!
$end
#10
b1 @
0/
0+
b1 C
0.
0*
1G
b1 F
0-
0)
1"
#20
0"
#30
1H
b10 F
b10 C
b10 @
1"
#40
0"
#50
b11 @
b11 C
b11 F
1"
#60
0"
#70
13
b0 F
04
b0 C
05
b0 @
1"
#80
0"
#90
1"
#100
0"
#110
1"
#120
0"
#130
1"
#140
0"
#150
1"
#160
0"
#170
1"
#180
0"
#190
1"
#200
0"
#210
1"
#220
0"
#230
1"
#240
0"
#250
1"
#260
0"
#270
1"
#280
0"
#290
1"
#300
0"
#310
1"
#320
0"
#330
1"
#340
0"
#350
1"
#360
0"
#370
1"
#380
0"
#390
1"
#400
0"
#410
1"
#420
0"
#430
1"
#440
0"
#450
1"
#460
0"
#470
1"
#480
0"
#490
1"
#500
0"
#510
1"
#520
0"
#530
1"
#540
0"
#550
1"
#560
0"
#570
1"
#580
0"
#590
1"
#600
0"
#610
1"
#620
0"
#630
1"
#640
0"
#650
1"
#660
0"
#670
1"
#680
0"
#690
1"
#700
0"
#710
1"
#720
0"
#730
1"
#740
0"
#750
1"
#760
0"
#770
1"
#780
0"
#790
1"
#800
0"
#810
1"
#820
0"
#830
1"
#840
0"
#850
1"
#860
0"
#870
1"
#880
0"
#890
1"
#900
0"
#910
1"
#920
0"
#930
1"
#940
0"
#950
1"
#960
0"
#970
1"
#980
0"
#990
1"
#1000
0"
1%
#1010
1D
1"
#1020
0"
#1030
1E
1"
#1040
0"
#1050
b1 C
1"
#1060
0"
#1070
b10 C
1"
#1080
0"
#1090
b11 C
1"
#1100
0"
#1110
b0 >
b0 ?
14
1*
b0 C
1"
#1120
0"
#1130
0=
0*
bx0 ,
bx0 8
bx0 ;
bx0 J
bx0 K
1"
